%YAML 1.1
%TAG !u! tag:unity3d.com,2011:
--- !u!29 &1
OcclusionCullingSettings:
  m_ObjectHideFlags: 0
  serializedVersion: 2
  m_OcclusionBakeSettings:
    smallestOccluder: 5
    smallestHole: 0.25
    backfaceThreshold: 100
  m_SceneGUID: 00000000000000000000000000000000
  m_OcclusionCullingData: {fileID: 0}
--- !u!104 &2
RenderSettings:
  m_ObjectHideFlags: 0
  serializedVersion: 8
  m_Fog: 0
  m_FogColor: {r: 0.5, g: 0.5, b: 0.5, a: 1}
  m_FogMode: 3
  m_FogDensity: 0.01
  m_LinearFogStart: 0
  m_LinearFogEnd: 300
  m_AmbientSkyColor: {r: 0.212, g: 0.227, b: 0.259, a: 1}
  m_AmbientEquatorColor: {r: 0.114, g: 0.125, b: 0.133, a: 1}
  m_AmbientGroundColor: {r: 0.047, g: 0.043, b: 0.035, a: 1}
  m_AmbientIntensity: 1
  m_AmbientMode: 0
  m_SubtractiveShadowColor: {r: 0.42, g: 0.478, b: 0.627, a: 1}
  m_SkyboxMaterial: {fileID: 10304, guid: 0000000000000000f000000000000000, type: 0}
  m_HaloStrength: 0.5
  m_FlareStrength: 1
  m_FlareFadeSpeed: 3
  m_HaloTexture: {fileID: 0}
  m_SpotCookie: {fileID: 10001, guid: 0000000000000000e000000000000000, type: 0}
  m_DefaultReflectionMode: 0
  m_DefaultReflectionResolution: 128
  m_ReflectionBounces: 1
  m_ReflectionIntensity: 1
  m_CustomReflection: {fileID: 0}
  m_Sun: {fileID: 0}
  m_IndirectSpecularColor: {r: 0.44657826, g: 0.49641263, b: 0.57481676, a: 1}
--- !u!157 &3
LightmapSettings:
  m_ObjectHideFlags: 0
  serializedVersion: 9
  m_GIWorkflowMode: 0
  m_GISettings:
    serializedVersion: 2
    m_BounceScale: 1
    m_IndirectOutputScale: 1
    m_AlbedoBoost: 1
    m_TemporalCoherenceThreshold: 1
    m_EnvironmentLightingMode: 0
    m_EnableBakedLightmaps: 1
    m_EnableRealtimeLightmaps: 1
  m_LightmapEditorSettings:
    serializedVersion: 8
    m_Resolution: 2
    m_BakeResolution: 40
    m_TextureWidth: 1024
    m_TextureHeight: 1024
    m_AO: 0
    m_AOMaxDistance: 1
    m_CompAOExponent: 1
    m_CompAOExponentDirect: 0
    m_Padding: 2
    m_LightmapParameters: {fileID: 0}
    m_LightmapsBakeMode: 1
    m_TextureCompression: 1
    m_FinalGather: 0
    m_FinalGatherFiltering: 1
    m_FinalGatherRayCount: 256
    m_ReflectionCompression: 2
    m_MixedBakeMode: 3
    m_BakeBackend: 0
    m_PVRSampling: 1
    m_PVRDirectSampleCount: 32
    m_PVRSampleCount: 500
    m_PVRBounces: 2
    m_PVRFiltering: 0
    m_PVRFilteringMode: 1
    m_PVRCulling: 1
    m_PVRFilteringGaussRadiusDirect: 1
    m_PVRFilteringGaussRadiusIndirect: 5
    m_PVRFilteringGaussRadiusAO: 2
    m_PVRFilteringAtrousColorSigma: 1
    m_PVRFilteringAtrousNormalSigma: 1
    m_PVRFilteringAtrousPositionSigma: 1
  m_LightingDataAsset: {fileID: 0}
  m_ShadowMaskMode: 2
--- !u!196 &4
NavMeshSettings:
  serializedVersion: 2
  m_ObjectHideFlags: 0
  m_BuildSettings:
    serializedVersion: 2
    agentTypeID: 0
    agentRadius: 0.5
    agentHeight: 2
    agentSlope: 45
    agentClimb: 0.4
    ledgeDropHeight: 0
    maxJumpAcrossDistance: 0
    minRegionArea: 2
    manualCellSize: 0
    cellSize: 0.16666667
    manualTileSize: 0
    tileSize: 256
    accuratePlacement: 0
  m_NavMeshData: {fileID: 0}
--- !u!1001 &742883478
Prefab:
  m_ObjectHideFlags: 0
  serializedVersion: 2
  m_Modification:
    m_TransformParent: {fileID: 0}
    m_Modifications:
    - target: {fileID: 224457519842760848, guid: ca3a29f58b75274499b0a8deca3ad385,
        type: 2}
      propertyPath: m_LocalPosition.x
      value: 0
      objectReference: {fileID: 0}
    - target: {fileID: 224457519842760848, guid: ca3a29f58b75274499b0a8deca3ad385,
        type: 2}
      propertyPath: m_LocalPosition.y
      value: 0
      objectReference: {fileID: 0}
    - target: {fileID: 224457519842760848, guid: ca3a29f58b75274499b0a8deca3ad385,
        type: 2}
      propertyPath: m_LocalPosition.z
      value: 0
      objectReference: {fileID: 0}
    - target: {fileID: 224457519842760848, guid: ca3a29f58b75274499b0a8deca3ad385,
        type: 2}
      propertyPath: m_LocalRotation.x
      value: 0
      objectReference: {fileID: 0}
    - target: {fileID: 224457519842760848, guid: ca3a29f58b75274499b0a8deca3ad385,
        type: 2}
      propertyPath: m_LocalRotation.y
      value: 0
      objectReference: {fileID: 0}
    - target: {fileID: 224457519842760848, guid: ca3a29f58b75274499b0a8deca3ad385,
        type: 2}
      propertyPath: m_LocalRotation.z
      value: 0
      objectReference: {fileID: 0}
    - target: {fileID: 224457519842760848, guid: ca3a29f58b75274499b0a8deca3ad385,
        type: 2}
      propertyPath: m_LocalRotation.w
      value: 1
      objectReference: {fileID: 0}
    - target: {fileID: 224457519842760848, guid: ca3a29f58b75274499b0a8deca3ad385,
        type: 2}
      propertyPath: m_RootOrder
      value: 2
      objectReference: {fileID: 0}
    - target: {fileID: 224457519842760848, guid: ca3a29f58b75274499b0a8deca3ad385,
        type: 2}
      propertyPath: m_AnchoredPosition.x
      value: 0
      objectReference: {fileID: 0}
    - target: {fileID: 224457519842760848, guid: ca3a29f58b75274499b0a8deca3ad385,
        type: 2}
      propertyPath: m_AnchoredPosition.y
      value: 0
      objectReference: {fileID: 0}
    - target: {fileID: 224457519842760848, guid: ca3a29f58b75274499b0a8deca3ad385,
        type: 2}
      propertyPath: m_SizeDelta.x
      value: 0
      objectReference: {fileID: 0}
    - target: {fileID: 224457519842760848, guid: ca3a29f58b75274499b0a8deca3ad385,
        type: 2}
      propertyPath: m_SizeDelta.y
      value: 0
      objectReference: {fileID: 0}
    - target: {fileID: 224457519842760848, guid: ca3a29f58b75274499b0a8deca3ad385,
        type: 2}
      propertyPath: m_AnchorMin.x
      value: 0
      objectReference: {fileID: 0}
    - target: {fileID: 224457519842760848, guid: ca3a29f58b75274499b0a8deca3ad385,
        type: 2}
      propertyPath: m_AnchorMin.y
      value: 0
      objectReference: {fileID: 0}
    - target: {fileID: 224457519842760848, guid: ca3a29f58b75274499b0a8deca3ad385,
        type: 2}
      propertyPath: m_AnchorMax.x
      value: 0
      objectReference: {fileID: 0}
    - target: {fileID: 224457519842760848, guid: ca3a29f58b75274499b0a8deca3ad385,
        type: 2}
      propertyPath: m_AnchorMax.y
      value: 0
      objectReference: {fileID: 0}
    - target: {fileID: 224457519842760848, guid: ca3a29f58b75274499b0a8deca3ad385,
        type: 2}
      propertyPath: m_Pivot.x
      value: 0
      objectReference: {fileID: 0}
    - target: {fileID: 224457519842760848, guid: ca3a29f58b75274499b0a8deca3ad385,
        type: 2}
      propertyPath: m_Pivot.y
      value: 0
      objectReference: {fileID: 0}
    - target: {fileID: 114632880445651670, guid: ca3a29f58b75274499b0a8deca3ad385,
        type: 2}
      propertyPath: eventSystem
      value: 
      objectReference: {fileID: 772520181}
    - target: {fileID: 114316803966982196, guid: ca3a29f58b75274499b0a8deca3ad385,
        type: 2}
      propertyPath: eventSystem
      value: 
      objectReference: {fileID: 772520181}
    - target: {fileID: 224559228871650350, guid: ca3a29f58b75274499b0a8deca3ad385,
        type: 2}
      propertyPath: m_AnchorMin.y
      value: 1
      objectReference: {fileID: 0}
    - target: {fileID: 224559228871650350, guid: ca3a29f58b75274499b0a8deca3ad385,
        type: 2}
      propertyPath: m_AnchorMax.y
      value: 1
      objectReference: {fileID: 0}
    - target: {fileID: 224559228871650350, guid: ca3a29f58b75274499b0a8deca3ad385,
        type: 2}
      propertyPath: m_AnchoredPosition.x
      value: 672
      objectReference: {fileID: 0}
    - target: {fileID: 224559228871650350, guid: ca3a29f58b75274499b0a8deca3ad385,
        type: 2}
      propertyPath: m_AnchoredPosition.y
      value: 0
      objectReference: {fileID: 0}
    - target: {fileID: 224559228871650350, guid: ca3a29f58b75274499b0a8deca3ad385,
        type: 2}
      propertyPath: m_SizeDelta.x
      value: 1164
      objectReference: {fileID: 0}
    - target: {fileID: 224559228871650350, guid: ca3a29f58b75274499b0a8deca3ad385,
        type: 2}
      propertyPath: m_SizeDelta.y
      value: 0
      objectReference: {fileID: 0}
    - target: {fileID: 224830309451215328, guid: ca3a29f58b75274499b0a8deca3ad385,
        type: 2}
      propertyPath: m_AnchorMin.y
      value: 1
      objectReference: {fileID: 0}
    - target: {fileID: 224830309451215328, guid: ca3a29f58b75274499b0a8deca3ad385,
        type: 2}
      propertyPath: m_AnchorMax.y
      value: 1
      objectReference: {fileID: 0}
    - target: {fileID: 224830309451215328, guid: ca3a29f58b75274499b0a8deca3ad385,
        type: 2}
      propertyPath: m_AnchoredPosition.x
      value: 672
      objectReference: {fileID: 0}
    - target: {fileID: 224830309451215328, guid: ca3a29f58b75274499b0a8deca3ad385,
        type: 2}
      propertyPath: m_AnchoredPosition.y
      value: 0
      objectReference: {fileID: 0}
    - target: {fileID: 224830309451215328, guid: ca3a29f58b75274499b0a8deca3ad385,
        type: 2}
      propertyPath: m_SizeDelta.x
      value: 1164
      objectReference: {fileID: 0}
    - target: {fileID: 224830309451215328, guid: ca3a29f58b75274499b0a8deca3ad385,
        type: 2}
      propertyPath: m_SizeDelta.y
      value: 0
      objectReference: {fileID: 0}
    - target: {fileID: 224980096067843258, guid: ca3a29f58b75274499b0a8deca3ad385,
        type: 2}
      propertyPath: m_AnchorMin.y
      value: 1
      objectReference: {fileID: 0}
    - target: {fileID: 224980096067843258, guid: ca3a29f58b75274499b0a8deca3ad385,
        type: 2}
      propertyPath: m_AnchorMax.y
      value: 1
      objectReference: {fileID: 0}
    - target: {fileID: 224980096067843258, guid: ca3a29f58b75274499b0a8deca3ad385,
        type: 2}
      propertyPath: m_AnchoredPosition.x
      value: 672
      objectReference: {fileID: 0}
    - target: {fileID: 224980096067843258, guid: ca3a29f58b75274499b0a8deca3ad385,
        type: 2}
      propertyPath: m_AnchoredPosition.y
      value: 0
      objectReference: {fileID: 0}
    - target: {fileID: 224980096067843258, guid: ca3a29f58b75274499b0a8deca3ad385,
        type: 2}
      propertyPath: m_SizeDelta.x
      value: 1164
      objectReference: {fileID: 0}
    - target: {fileID: 224980096067843258, guid: ca3a29f58b75274499b0a8deca3ad385,
        type: 2}
      propertyPath: m_SizeDelta.y
      value: 0
      objectReference: {fileID: 0}
    - target: {fileID: 224868023838117360, guid: ca3a29f58b75274499b0a8deca3ad385,
        type: 2}
      propertyPath: m_AnchorMin.y
      value: 1
      objectReference: {fileID: 0}
    - target: {fileID: 224868023838117360, guid: ca3a29f58b75274499b0a8deca3ad385,
        type: 2}
      propertyPath: m_AnchorMax.y
      value: 1
      objectReference: {fileID: 0}
    - target: {fileID: 224868023838117360, guid: ca3a29f58b75274499b0a8deca3ad385,
        type: 2}
      propertyPath: m_AnchoredPosition.x
      value: 672
      objectReference: {fileID: 0}
    - target: {fileID: 224868023838117360, guid: ca3a29f58b75274499b0a8deca3ad385,
        type: 2}
      propertyPath: m_AnchoredPosition.y
      value: 0
      objectReference: {fileID: 0}
    - target: {fileID: 224868023838117360, guid: ca3a29f58b75274499b0a8deca3ad385,
        type: 2}
      propertyPath: m_SizeDelta.x
      value: 1164
      objectReference: {fileID: 0}
    - target: {fileID: 224868023838117360, guid: ca3a29f58b75274499b0a8deca3ad385,
        type: 2}
      propertyPath: m_SizeDelta.y
      value: 0
      objectReference: {fileID: 0}
    - target: {fileID: 224921868032600514, guid: ca3a29f58b75274499b0a8deca3ad385,
        type: 2}
      propertyPath: m_AnchorMin.y
      value: 1
      objectReference: {fileID: 0}
    - target: {fileID: 224921868032600514, guid: ca3a29f58b75274499b0a8deca3ad385,
        type: 2}
      propertyPath: m_AnchorMax.y
      value: 1
      objectReference: {fileID: 0}
    - target: {fileID: 224921868032600514, guid: ca3a29f58b75274499b0a8deca3ad385,
        type: 2}
      propertyPath: m_AnchoredPosition.x
      value: 672
      objectReference: {fileID: 0}
    - target: {fileID: 224921868032600514, guid: ca3a29f58b75274499b0a8deca3ad385,
        type: 2}
      propertyPath: m_AnchoredPosition.y
      value: 0
      objectReference: {fileID: 0}
    - target: {fileID: 224921868032600514, guid: ca3a29f58b75274499b0a8deca3ad385,
        type: 2}
      propertyPath: m_SizeDelta.x
      value: 1164
      objectReference: {fileID: 0}
    - target: {fileID: 224921868032600514, guid: ca3a29f58b75274499b0a8deca3ad385,
        type: 2}
      propertyPath: m_SizeDelta.y
      value: 0
      objectReference: {fileID: 0}
    - target: {fileID: 224428581755629222, guid: ca3a29f58b75274499b0a8deca3ad385,
        type: 2}
      propertyPath: m_AnchorMin.y
      value: 1
      objectReference: {fileID: 0}
    - target: {fileID: 224428581755629222, guid: ca3a29f58b75274499b0a8deca3ad385,
        type: 2}
      propertyPath: m_AnchorMax.y
      value: 1
      objectReference: {fileID: 0}
    - target: {fileID: 224428581755629222, guid: ca3a29f58b75274499b0a8deca3ad385,
        type: 2}
      propertyPath: m_AnchoredPosition.x
      value: 672
      objectReference: {fileID: 0}
    - target: {fileID: 224428581755629222, guid: ca3a29f58b75274499b0a8deca3ad385,
        type: 2}
      propertyPath: m_AnchoredPosition.y
      value: 0
      objectReference: {fileID: 0}
    - target: {fileID: 224428581755629222, guid: ca3a29f58b75274499b0a8deca3ad385,
        type: 2}
      propertyPath: m_SizeDelta.x
      value: 1164
      objectReference: {fileID: 0}
    - target: {fileID: 224428581755629222, guid: ca3a29f58b75274499b0a8deca3ad385,
        type: 2}
      propertyPath: m_SizeDelta.y
      value: 0
      objectReference: {fileID: 0}
    m_RemovedComponents: []
  m_ParentPrefab: {fileID: 100100000, guid: ca3a29f58b75274499b0a8deca3ad385, type: 2}
  m_IsPrefabParent: 0
--- !u!1 &772520179
GameObject:
  m_ObjectHideFlags: 0
  m_PrefabParentObject: {fileID: 0}
  m_PrefabInternal: {fileID: 0}
  serializedVersion: 5
  m_Component:
  - component: {fileID: 772520182}
  - component: {fileID: 772520181}
  - component: {fileID: 772520180}
  m_Layer: 0
  m_Name: EventSystem
  m_TagString: Untagged
  m_Icon: {fileID: 0}
  m_NavMeshLayer: 0
  m_StaticEditorFlags: 0
  m_IsActive: 1
--- !u!114 &772520180
MonoBehaviour:
  m_ObjectHideFlags: 0
  m_PrefabParentObject: {fileID: 0}
  m_PrefabInternal: {fileID: 0}
  m_GameObject: {fileID: 772520179}
  m_Enabled: 1
  m_EditorHideFlags: 0
  m_Script: {fileID: 1077351063, guid: f5f67c52d1564df4a8936ccd202a3bd8, type: 3}
  m_Name: 
  m_EditorClassIdentifier: 
  m_HorizontalAxis: Horizontal
  m_VerticalAxis: Vertical
  m_SubmitButton: Submit
  m_CancelButton: Cancel
  m_InputActionsPerSecond: 10
  m_RepeatDelay: 0.5
  m_ForceModuleActive: 0
--- !u!114 &772520181
MonoBehaviour:
  m_ObjectHideFlags: 0
  m_PrefabParentObject: {fileID: 0}
  m_PrefabInternal: {fileID: 0}
  m_GameObject: {fileID: 772520179}
  m_Enabled: 1
  m_EditorHideFlags: 0
  m_Script: {fileID: -619905303, guid: f5f67c52d1564df4a8936ccd202a3bd8, type: 3}
  m_Name: 
  m_EditorClassIdentifier: 
  m_FirstSelected: {fileID: 0}
  m_sendNavigationEvents: 1
  m_DragThreshold: 5
--- !u!4 &772520182
Transform:
  m_ObjectHideFlags: 0
  m_PrefabParentObject: {fileID: 0}
  m_PrefabInternal: {fileID: 0}
  m_GameObject: {fileID: 772520179}
  m_LocalRotation: {x: 0, y: 0, z: 0, w: 1}
  m_LocalPosition: {x: 0, y: 0, z: 0}
  m_LocalScale: {x: 1, y: 1, z: 1}
  m_Children: []
  m_Father: {fileID: 0}
  m_RootOrder: 3
  m_LocalEulerAnglesHint: {x: 0, y: 0, z: 0}
--- !u!1001 &952957051
Prefab:
  m_ObjectHideFlags: 0
  serializedVersion: 2
  m_Modification:
    m_TransformParent: {fileID: 0}
    m_Modifications:
    - target: {fileID: 400000, guid: 7461a7b0cf97947fd9b9e4502fd2d07b, type: 2}
      propertyPath: m_LocalPosition.x
      value: -0.2683506
      objectReference: {fileID: 0}
    - target: {fileID: 400000, guid: 7461a7b0cf97947fd9b9e4502fd2d07b, type: 2}
      propertyPath: m_LocalPosition.y
      value: -0.6690736
      objectReference: {fileID: 0}
    - target: {fileID: 400000, guid: 7461a7b0cf97947fd9b9e4502fd2d07b, type: 2}
      propertyPath: m_LocalPosition.z
      value: 0.65190744
      objectReference: {fileID: 0}
    - target: {fileID: 400000, guid: 7461a7b0cf97947fd9b9e4502fd2d07b, type: 2}
      propertyPath: m_LocalRotation.x
      value: 0
      objectReference: {fileID: 0}
    - target: {fileID: 400000, guid: 7461a7b0cf97947fd9b9e4502fd2d07b, type: 2}
      propertyPath: m_LocalRotation.y
      value: 0
      objectReference: {fileID: 0}
    - target: {fileID: 400000, guid: 7461a7b0cf97947fd9b9e4502fd2d07b, type: 2}
      propertyPath: m_LocalRotation.z
      value: 0
      objectReference: {fileID: 0}
    - target: {fileID: 400000, guid: 7461a7b0cf97947fd9b9e4502fd2d07b, type: 2}
      propertyPath: m_LocalRotation.w
      value: 1
      objectReference: {fileID: 0}
    - target: {fileID: 400000, guid: 7461a7b0cf97947fd9b9e4502fd2d07b, type: 2}
      propertyPath: m_RootOrder
      value: 0
      objectReference: {fileID: 0}
    - target: {fileID: 21200000, guid: 7461a7b0cf97947fd9b9e4502fd2d07b, type: 2}
      propertyPath: m_Sprite
      value: 
      objectReference: {fileID: 21300000, guid: fbcf2e1f7f384b244b7ac35b379c70b1,
        type: 3}
    - target: {fileID: 400002, guid: 7461a7b0cf97947fd9b9e4502fd2d07b, type: 2}
      propertyPath: m_LocalPosition.x
      value: -7
      objectReference: {fileID: 0}
    - target: {fileID: 400002, guid: 7461a7b0cf97947fd9b9e4502fd2d07b, type: 2}
      propertyPath: m_LocalScale.x
      value: -40.13402
      objectReference: {fileID: 0}
    - target: {fileID: 400002, guid: 7461a7b0cf97947fd9b9e4502fd2d07b, type: 2}
      propertyPath: m_LocalPosition.y
      value: -2
      objectReference: {fileID: 0}
    - target: {fileID: 400002, guid: 7461a7b0cf97947fd9b9e4502fd2d07b, type: 2}
      propertyPath: m_LocalScale.y
      value: 31.830215
      objectReference: {fileID: 0}
    - target: {fileID: 8100000, guid: 7461a7b0cf97947fd9b9e4502fd2d07b, type: 2}
      propertyPath: m_Enabled
      value: 1
      objectReference: {fileID: 0}
    m_RemovedComponents: []
  m_ParentPrefab: {fileID: 100100000, guid: 7461a7b0cf97947fd9b9e4502fd2d07b, type: 2}
  m_IsPrefabParent: 0
--- !u!1 &1146466628 stripped
GameObject:
  m_PrefabParentObject: {fileID: 1936915292911046, guid: f25214f50e72e4e4da71e77f39962710,
    type: 2}
  m_PrefabInternal: {fileID: 1861233040}
--- !u!114 &1146466631
MonoBehaviour:
  m_ObjectHideFlags: 0
  m_PrefabParentObject: {fileID: 0}
  m_PrefabInternal: {fileID: 0}
  m_GameObject: {fileID: 1146466628}
  m_Enabled: 1
  m_EditorHideFlags: 0
  m_Script: {fileID: 11500000, guid: a8e822ed52824c042bd2f6993ff69804, type: 3}
  m_Name: 
  m_EditorClassIdentifier: 
  masterMixer: {fileID: 24100000, guid: 57272200d86ea5f4c8d0d7890df90529, type: 2}
--- !u!1 &1153180278
GameObject:
  m_ObjectHideFlags: 0
  m_PrefabParentObject: {fileID: 0}
  m_PrefabInternal: {fileID: 0}
  serializedVersion: 5
  m_Component:
  - component: {fileID: 1153180280}
  - component: {fileID: 1153180279}
  m_Layer: 0
  m_Name: Directional Light
  m_TagString: Untagged
  m_Icon: {fileID: 0}
  m_NavMeshLayer: 0
  m_StaticEditorFlags: 0
  m_IsActive: 1
--- !u!108 &1153180279
Light:
  m_ObjectHideFlags: 0
  m_PrefabParentObject: {fileID: 0}
  m_PrefabInternal: {fileID: 0}
  m_GameObject: {fileID: 1153180278}
  m_Enabled: 1
  serializedVersion: 8
  m_Type: 1
  m_Color: {r: 1, g: 0.95686275, b: 0.8392157, a: 1}
  m_Intensity: 1
  m_Range: 10
  m_SpotAngle: 30
  m_CookieSize: 10
  m_Shadows:
    m_Type: 2
    m_Resolution: -1
    m_CustomResolution: -1
    m_Strength: 1
    m_Bias: 0.05
    m_NormalBias: 0.4
    m_NearPlane: 0.2
  m_Cookie: {fileID: 0}
  m_DrawHalo: 0
  m_Flare: {fileID: 0}
  m_RenderMode: 0
  m_CullingMask:
    serializedVersion: 2
    m_Bits: 4294967295
  m_Lightmapping: 4
  m_AreaSize: {x: 1, y: 1}
  m_BounceIntensity: 1
  m_ColorTemperature: 6570
  m_UseColorTemperature: 0
  m_ShadowRadius: 0
  m_ShadowAngle: 0
--- !u!4 &1153180280
Transform:
  m_ObjectHideFlags: 0
  m_PrefabParentObject: {fileID: 0}
  m_PrefabInternal: {fileID: 0}
  m_GameObject: {fileID: 1153180278}
  m_LocalRotation: {x: 0.40821788, y: -0.23456968, z: 0.10938163, w: 0.8754261}
  m_LocalPosition: {x: 0, y: 3, z: 0}
  m_LocalScale: {x: 1, y: 1, z: 1}
  m_Children: []
  m_Father: {fileID: 0}
  m_RootOrder: 1
  m_LocalEulerAnglesHint: {x: 50, y: -30, z: 0}
--- !u!1001 &1861233040
Prefab:
  m_ObjectHideFlags: 0
  serializedVersion: 2
  m_Modification:
    m_TransformParent: {fileID: 0}
    m_Modifications:
    - target: {fileID: 4361644082274444, guid: f25214f50e72e4e4da71e77f39962710, type: 2}
      propertyPath: m_LocalPosition.x
      value: 0
      objectReference: {fileID: 0}
    - target: {fileID: 4361644082274444, guid: f25214f50e72e4e4da71e77f39962710, type: 2}
      propertyPath: m_LocalPosition.y
      value: 0
      objectReference: {fileID: 0}
    - target: {fileID: 4361644082274444, guid: f25214f50e72e4e4da71e77f39962710, type: 2}
      propertyPath: m_LocalPosition.z
      value: 0
      objectReference: {fileID: 0}
    - target: {fileID: 4361644082274444, guid: f25214f50e72e4e4da71e77f39962710, type: 2}
      propertyPath: m_LocalRotation.x
      value: 0
      objectReference: {fileID: 0}
    - target: {fileID: 4361644082274444, guid: f25214f50e72e4e4da71e77f39962710, type: 2}
      propertyPath: m_LocalRotation.y
      value: 0
      objectReference: {fileID: 0}
    - target: {fileID: 4361644082274444, guid: f25214f50e72e4e4da71e77f39962710, type: 2}
      propertyPath: m_LocalRotation.z
      value: 0
      objectReference: {fileID: 0}
    - target: {fileID: 4361644082274444, guid: f25214f50e72e4e4da71e77f39962710, type: 2}
      propertyPath: m_LocalRotation.w
      value: 1
      objectReference: {fileID: 0}
    - target: {fileID: 4361644082274444, guid: f25214f50e72e4e4da71e77f39962710, type: 2}
      propertyPath: m_RootOrder
      value: 4
      objectReference: {fileID: 0}
    - target: {fileID: 114097954294904724, guid: f25214f50e72e4e4da71e77f39962710,
        type: 2}
      propertyPath: m_Enabled
      value: 0
      objectReference: {fileID: 0}
    m_RemovedComponents: []
  m_ParentPrefab: {fileID: 100100000, guid: f25214f50e72e4e4da71e77f39962710, type: 2}
  m_IsPrefabParent: 0
