%YAML 1.1
%TAG !u! tag:unity3d.com,2011:
--- !u!29 &1
OcclusionCullingSettings:
  m_ObjectHideFlags: 0
  serializedVersion: 2
  m_OcclusionBakeSettings:
    smallestOccluder: 5
    smallestHole: 0.25
    backfaceThreshold: 100
  m_SceneGUID: 00000000000000000000000000000000
  m_OcclusionCullingData: {fileID: 0}
--- !u!104 &2
RenderSettings:
  m_ObjectHideFlags: 0
  serializedVersion: 8
  m_Fog: 1
  m_FogColor: {r: 0.18217997, g: 0.16154845, b: 0.2647059, a: 1}
  m_FogMode: 3
  m_FogDensity: 0.03
  m_LinearFogStart: 0
  m_LinearFogEnd: 300
  m_AmbientSkyColor: {r: 0.212, g: 0.227, b: 0.259, a: 1}
  m_AmbientEquatorColor: {r: 0.114, g: 0.125, b: 0.133, a: 1}
  m_AmbientGroundColor: {r: 0.047, g: 0.043, b: 0.035, a: 1}
  m_AmbientIntensity: 1
  m_AmbientMode: 0
  m_SubtractiveShadowColor: {r: 0.42, g: 0.478, b: 0.627, a: 1}
  m_SkyboxMaterial: {fileID: 10304, guid: 0000000000000000f000000000000000, type: 0}
  m_HaloStrength: 0.5
  m_FlareStrength: 1
  m_FlareFadeSpeed: 3
  m_HaloTexture: {fileID: 0}
  m_SpotCookie: {fileID: 10001, guid: 0000000000000000e000000000000000, type: 0}
  m_DefaultReflectionMode: 0
  m_DefaultReflectionResolution: 128
  m_ReflectionBounces: 1
  m_ReflectionIntensity: 1
  m_CustomReflection: {fileID: 0}
  m_Sun: {fileID: 0}
  m_IndirectSpecularColor: {r: 0.44300273, g: 0.49219579, b: 0.5719249, a: 1}
--- !u!157 &3
LightmapSettings:
  m_ObjectHideFlags: 0
  serializedVersion: 9
  m_GIWorkflowMode: 0
  m_GISettings:
    serializedVersion: 2
    m_BounceScale: 1
    m_IndirectOutputScale: 1
    m_AlbedoBoost: 1
    m_TemporalCoherenceThreshold: 1
    m_EnvironmentLightingMode: 0
    m_EnableBakedLightmaps: 0
    m_EnableRealtimeLightmaps: 0
  m_LightmapEditorSettings:
    serializedVersion: 8
    m_Resolution: 2
    m_BakeResolution: 40
    m_TextureWidth: 1024
    m_TextureHeight: 1024
    m_AO: 0
    m_AOMaxDistance: 1
    m_CompAOExponent: 1
    m_CompAOExponentDirect: 0
    m_Padding: 2
    m_LightmapParameters: {fileID: 0}
    m_LightmapsBakeMode: 1
    m_TextureCompression: 1
    m_FinalGather: 0
    m_FinalGatherFiltering: 1
    m_FinalGatherRayCount: 256
    m_ReflectionCompression: 2
    m_MixedBakeMode: 3
    m_BakeBackend: 0
    m_PVRSampling: 1
    m_PVRDirectSampleCount: 32
    m_PVRSampleCount: 500
    m_PVRBounces: 2
    m_PVRFiltering: 0
    m_PVRFilteringMode: 1
    m_PVRCulling: 1
    m_PVRFilteringGaussRadiusDirect: 1
    m_PVRFilteringGaussRadiusIndirect: 5
    m_PVRFilteringGaussRadiusAO: 2
    m_PVRFilteringAtrousColorSigma: 1
    m_PVRFilteringAtrousNormalSigma: 1
    m_PVRFilteringAtrousPositionSigma: 1
  m_LightingDataAsset: {fileID: 0}
  m_ShadowMaskMode: 2
--- !u!196 &4
NavMeshSettings:
  serializedVersion: 2
  m_ObjectHideFlags: 0
  m_BuildSettings:
    serializedVersion: 2
    agentTypeID: 0
    agentRadius: 0.5
    agentHeight: 2
    agentSlope: 45
    agentClimb: 0.4
    ledgeDropHeight: 0
    maxJumpAcrossDistance: 0
    minRegionArea: 2
    manualCellSize: 0
    cellSize: 0.16666667
    manualTileSize: 0
    tileSize: 256
    accuratePlacement: 0
  m_NavMeshData: {fileID: 23800000, guid: 6ba1284bdb2ea2248b2b17b05aef886d, type: 2}
--- !u!1001 &1466843122
Prefab:
  m_ObjectHideFlags: 0
  serializedVersion: 2
  m_Modification:
    m_TransformParent: {fileID: 0}
    m_Modifications:
    - target: {fileID: 4491603935931988, guid: 0920b11fb7b95c14593c92b0feeb52e3, type: 2}
      propertyPath: m_LocalPosition.x
      value: 0
      objectReference: {fileID: 0}
    - target: {fileID: 4491603935931988, guid: 0920b11fb7b95c14593c92b0feeb52e3, type: 2}
      propertyPath: m_LocalPosition.y
      value: 10
      objectReference: {fileID: 0}
    - target: {fileID: 4491603935931988, guid: 0920b11fb7b95c14593c92b0feeb52e3, type: 2}
      propertyPath: m_LocalPosition.z
      value: 0
      objectReference: {fileID: 0}
    - target: {fileID: 4491603935931988, guid: 0920b11fb7b95c14593c92b0feeb52e3, type: 2}
      propertyPath: m_LocalRotation.x
      value: 0
      objectReference: {fileID: 0}
    - target: {fileID: 4491603935931988, guid: 0920b11fb7b95c14593c92b0feeb52e3, type: 2}
      propertyPath: m_LocalRotation.y
      value: 0
      objectReference: {fileID: 0}
    - target: {fileID: 4491603935931988, guid: 0920b11fb7b95c14593c92b0feeb52e3, type: 2}
      propertyPath: m_LocalRotation.z
      value: 0
      objectReference: {fileID: 0}
    - target: {fileID: 4491603935931988, guid: 0920b11fb7b95c14593c92b0feeb52e3, type: 2}
      propertyPath: m_LocalRotation.w
      value: 1
      objectReference: {fileID: 0}
    - target: {fileID: 4491603935931988, guid: 0920b11fb7b95c14593c92b0feeb52e3, type: 2}
      propertyPath: m_RootOrder
      value: 1
      objectReference: {fileID: 0}
    m_RemovedComponents: []
  m_ParentPrefab: {fileID: 100100000, guid: 0920b11fb7b95c14593c92b0feeb52e3, type: 2}
  m_IsPrefabParent: 0
--- !u!1001 &1558728805
Prefab:
  m_ObjectHideFlags: 0
  serializedVersion: 2
  m_Modification:
    m_TransformParent: {fileID: 0}
    m_Modifications:
    - target: {fileID: 4714135488949328, guid: ea3aac15a737ff345a8a95d215d99fc9, type: 2}
      propertyPath: m_LocalPosition.x
      value: 563.5
      objectReference: {fileID: 0}
    - target: {fileID: 4714135488949328, guid: ea3aac15a737ff345a8a95d215d99fc9, type: 2}
      propertyPath: m_LocalPosition.y
      value: 240
      objectReference: {fileID: 0}
    - target: {fileID: 4714135488949328, guid: ea3aac15a737ff345a8a95d215d99fc9, type: 2}
      propertyPath: m_LocalPosition.z
      value: 0
      objectReference: {fileID: 0}
    - target: {fileID: 4714135488949328, guid: ea3aac15a737ff345a8a95d215d99fc9, type: 2}
      propertyPath: m_LocalRotation.x
      value: -0
      objectReference: {fileID: 0}
    - target: {fileID: 4714135488949328, guid: ea3aac15a737ff345a8a95d215d99fc9, type: 2}
      propertyPath: m_LocalRotation.y
      value: -0
      objectReference: {fileID: 0}
    - target: {fileID: 4714135488949328, guid: ea3aac15a737ff345a8a95d215d99fc9, type: 2}
      propertyPath: m_LocalRotation.z
      value: -0
      objectReference: {fileID: 0}
    - target: {fileID: 4714135488949328, guid: ea3aac15a737ff345a8a95d215d99fc9, type: 2}
      propertyPath: m_LocalRotation.w
      value: 1
      objectReference: {fileID: 0}
    - target: {fileID: 4714135488949328, guid: ea3aac15a737ff345a8a95d215d99fc9, type: 2}
      propertyPath: m_RootOrder
      value: 0
      objectReference: {fileID: 0}
    - target: {fileID: 4945956002770036, guid: ea3aac15a737ff345a8a95d215d99fc9, type: 2}
      propertyPath: m_LocalRotation.x
      value: 0.10090146
      objectReference: {fileID: 0}
    - target: {fileID: 4945956002770036, guid: ea3aac15a737ff345a8a95d215d99fc9, type: 2}
      propertyPath: m_LocalRotation.y
      value: 0.8002038
      objectReference: {fileID: 0}
    - target: {fileID: 4945956002770036, guid: ea3aac15a737ff345a8a95d215d99fc9, type: 2}
      propertyPath: m_LocalRotation.z
      value: 0.5566395
      objectReference: {fileID: 0}
    - target: {fileID: 4945956002770036, guid: ea3aac15a737ff345a8a95d215d99fc9, type: 2}
      propertyPath: m_LocalRotation.w
      value: 0.19911154
      objectReference: {fileID: 0}
    - target: {fileID: 4327870240822186, guid: ea3aac15a737ff345a8a95d215d99fc9, type: 2}
      propertyPath: m_LocalRotation.x
      value: 0.113707066
      objectReference: {fileID: 0}
    - target: {fileID: 4327870240822186, guid: ea3aac15a737ff345a8a95d215d99fc9, type: 2}
      propertyPath: m_LocalRotation.y
      value: 0.7175312
      objectReference: {fileID: 0}
    - target: {fileID: 4327870240822186, guid: ea3aac15a737ff345a8a95d215d99fc9, type: 2}
      propertyPath: m_LocalRotation.z
      value: 0.68341154
      objectReference: {fileID: 0}
    - target: {fileID: 4327870240822186, guid: ea3aac15a737ff345a8a95d215d99fc9, type: 2}
      propertyPath: m_LocalRotation.w
      value: 0.071892455
      objectReference: {fileID: 0}
    - target: {fileID: 114318425021763462, guid: ea3aac15a737ff345a8a95d215d99fc9,
        type: 2}
      propertyPath: ENEMY_1
      value: 
      objectReference: {fileID: 1990659833572348, guid: 80cd48e7aab5acc4699a693e21607a14,
        type: 2}
    - target: {fileID: 224135599012724386, guid: ea3aac15a737ff345a8a95d215d99fc9,
        type: 2}
      propertyPath: m_AnchorMin.y
      value: 1
      objectReference: {fileID: 0}
    - target: {fileID: 224135599012724386, guid: ea3aac15a737ff345a8a95d215d99fc9,
        type: 2}
      propertyPath: m_AnchorMax.y
      value: 1
      objectReference: {fileID: 0}
    - target: {fileID: 224135599012724386, guid: ea3aac15a737ff345a8a95d215d99fc9,
        type: 2}
      propertyPath: m_AnchoredPosition.x
      value: 768
      objectReference: {fileID: 0}
    - target: {fileID: 224135599012724386, guid: ea3aac15a737ff345a8a95d215d99fc9,
        type: 2}
      propertyPath: m_AnchoredPosition.y
      value: -171.69728
      objectReference: {fileID: 0}
    - target: {fileID: 224135599012724386, guid: ea3aac15a737ff345a8a95d215d99fc9,
        type: 2}
      propertyPath: m_SizeDelta.x
      value: 1296
      objectReference: {fileID: 0}
    - target: {fileID: 224135599012724386, guid: ea3aac15a737ff345a8a95d215d99fc9,
        type: 2}
      propertyPath: m_SizeDelta.y
      value: 173.39456
      objectReference: {fileID: 0}
    - target: {fileID: 224023184646354922, guid: ea3aac15a737ff345a8a95d215d99fc9,
        type: 2}
      propertyPath: m_AnchorMin.y
      value: 1
      objectReference: {fileID: 0}
    - target: {fileID: 224023184646354922, guid: ea3aac15a737ff345a8a95d215d99fc9,
        type: 2}
      propertyPath: m_AnchorMax.y
      value: 1
      objectReference: {fileID: 0}
    - target: {fileID: 224023184646354922, guid: ea3aac15a737ff345a8a95d215d99fc9,
        type: 2}
      propertyPath: m_AnchoredPosition.x
      value: 768
      objectReference: {fileID: 0}
    - target: {fileID: 224023184646354922, guid: ea3aac15a737ff345a8a95d215d99fc9,
        type: 2}
      propertyPath: m_AnchoredPosition.y
      value: -345.09186
      objectReference: {fileID: 0}
    - target: {fileID: 224023184646354922, guid: ea3aac15a737ff345a8a95d215d99fc9,
        type: 2}
      propertyPath: m_SizeDelta.x
      value: 1296
      objectReference: {fileID: 0}
    - target: {fileID: 224023184646354922, guid: ea3aac15a737ff345a8a95d215d99fc9,
        type: 2}
      propertyPath: m_SizeDelta.y
      value: 173.39456
      objectReference: {fileID: 0}
    - target: {fileID: 224103661779368798, guid: ea3aac15a737ff345a8a95d215d99fc9,
        type: 2}
      propertyPath: m_AnchorMin.y
      value: 1
      objectReference: {fileID: 0}
    - target: {fileID: 224103661779368798, guid: ea3aac15a737ff345a8a95d215d99fc9,
        type: 2}
      propertyPath: m_AnchorMax.y
      value: 1
      objectReference: {fileID: 0}
    - target: {fileID: 224103661779368798, guid: ea3aac15a737ff345a8a95d215d99fc9,
        type: 2}
      propertyPath: m_AnchoredPosition.x
      value: 768
      objectReference: {fileID: 0}
    - target: {fileID: 224103661779368798, guid: ea3aac15a737ff345a8a95d215d99fc9,
        type: 2}
      propertyPath: m_AnchoredPosition.y
      value: -518.4864
      objectReference: {fileID: 0}
    - target: {fileID: 224103661779368798, guid: ea3aac15a737ff345a8a95d215d99fc9,
        type: 2}
      propertyPath: m_SizeDelta.x
      value: 1296
      objectReference: {fileID: 0}
    - target: {fileID: 224103661779368798, guid: ea3aac15a737ff345a8a95d215d99fc9,
        type: 2}
      propertyPath: m_SizeDelta.y
      value: 173.39456
      objectReference: {fileID: 0}
    - target: {fileID: 224218807132482090, guid: ea3aac15a737ff345a8a95d215d99fc9,
        type: 2}
      propertyPath: m_AnchorMin.y
      value: 1
      objectReference: {fileID: 0}
    - target: {fileID: 224218807132482090, guid: ea3aac15a737ff345a8a95d215d99fc9,
        type: 2}
      propertyPath: m_AnchorMax.y
      value: 1
      objectReference: {fileID: 0}
    - target: {fileID: 224218807132482090, guid: ea3aac15a737ff345a8a95d215d99fc9,
        type: 2}
      propertyPath: m_AnchoredPosition.x
      value: 768
      objectReference: {fileID: 0}
    - target: {fileID: 224218807132482090, guid: ea3aac15a737ff345a8a95d215d99fc9,
        type: 2}
      propertyPath: m_AnchoredPosition.y
      value: -691.881
      objectReference: {fileID: 0}
    - target: {fileID: 224218807132482090, guid: ea3aac15a737ff345a8a95d215d99fc9,
        type: 2}
      propertyPath: m_SizeDelta.x
      value: 1296
      objectReference: {fileID: 0}
    - target: {fileID: 224218807132482090, guid: ea3aac15a737ff345a8a95d215d99fc9,
        type: 2}
      propertyPath: m_SizeDelta.y
      value: 173.39456
      objectReference: {fileID: 0}
    - target: {fileID: 224966935983893784, guid: ea3aac15a737ff345a8a95d215d99fc9,
        type: 2}
      propertyPath: m_AnchorMin.y
      value: 1
      objectReference: {fileID: 0}
    - target: {fileID: 224966935983893784, guid: ea3aac15a737ff345a8a95d215d99fc9,
        type: 2}
      propertyPath: m_AnchorMax.y
      value: 1
      objectReference: {fileID: 0}
    - target: {fileID: 224966935983893784, guid: ea3aac15a737ff345a8a95d215d99fc9,
        type: 2}
      propertyPath: m_AnchoredPosition.x
      value: 768
      objectReference: {fileID: 0}
    - target: {fileID: 224966935983893784, guid: ea3aac15a737ff345a8a95d215d99fc9,
        type: 2}
      propertyPath: m_AnchoredPosition.y
      value: -204.59637
      objectReference: {fileID: 0}
    - target: {fileID: 224966935983893784, guid: ea3aac15a737ff345a8a95d215d99fc9,
        type: 2}
      propertyPath: m_SizeDelta.x
      value: 1296
      objectReference: {fileID: 0}
    - target: {fileID: 224966935983893784, guid: ea3aac15a737ff345a8a95d215d99fc9,
        type: 2}
      propertyPath: m_SizeDelta.y
      value: 239.19275
      objectReference: {fileID: 0}
    - target: {fileID: 224565592569392434, guid: ea3aac15a737ff345a8a95d215d99fc9,
        type: 2}
      propertyPath: m_AnchorMin.y
      value: 1
      objectReference: {fileID: 0}
    - target: {fileID: 224565592569392434, guid: ea3aac15a737ff345a8a95d215d99fc9,
        type: 2}
      propertyPath: m_AnchorMax.y
      value: 1
      objectReference: {fileID: 0}
    - target: {fileID: 224565592569392434, guid: ea3aac15a737ff345a8a95d215d99fc9,
        type: 2}
      propertyPath: m_AnchoredPosition.x
      value: 768
      objectReference: {fileID: 0}
    - target: {fileID: 224565592569392434, guid: ea3aac15a737ff345a8a95d215d99fc9,
        type: 2}
      propertyPath: m_AnchoredPosition.y
      value: -437.78912
      objectReference: {fileID: 0}
    - target: {fileID: 224565592569392434, guid: ea3aac15a737ff345a8a95d215d99fc9,
        type: 2}
      propertyPath: m_SizeDelta.x
      value: 1296
      objectReference: {fileID: 0}
    - target: {fileID: 224565592569392434, guid: ea3aac15a737ff345a8a95d215d99fc9,
        type: 2}
      propertyPath: m_SizeDelta.y
      value: 227.19275
      objectReference: {fileID: 0}
    - target: {fileID: 224594048305604624, guid: ea3aac15a737ff345a8a95d215d99fc9,
        type: 2}
      propertyPath: m_AnchorMin.y
      value: 1
      objectReference: {fileID: 0}
    - target: {fileID: 224594048305604624, guid: ea3aac15a737ff345a8a95d215d99fc9,
        type: 2}
      propertyPath: m_AnchorMax.y
      value: 1
      objectReference: {fileID: 0}
    - target: {fileID: 224594048305604624, guid: ea3aac15a737ff345a8a95d215d99fc9,
        type: 2}
      propertyPath: m_AnchoredPosition.x
      value: 768
      objectReference: {fileID: 0}
    - target: {fileID: 224594048305604624, guid: ea3aac15a737ff345a8a95d215d99fc9,
        type: 2}
      propertyPath: m_AnchoredPosition.y
      value: -664.9819
      objectReference: {fileID: 0}
    - target: {fileID: 224594048305604624, guid: ea3aac15a737ff345a8a95d215d99fc9,
        type: 2}
      propertyPath: m_SizeDelta.x
      value: 1296
      objectReference: {fileID: 0}
    - target: {fileID: 224594048305604624, guid: ea3aac15a737ff345a8a95d215d99fc9,
        type: 2}
      propertyPath: m_SizeDelta.y
      value: 227.19275
      objectReference: {fileID: 0}
    m_RemovedComponents: []
  m_ParentPrefab: {fileID: 100100000, guid: ea3aac15a737ff345a8a95d215d99fc9, type: 2}
  m_IsPrefabParent: 0
